<?xml version="1.0" encoding="utf-8"?>
<!DOCTYPE eagle SYSTEM "eagle.dtd">
<eagle version="9.2.0">
<drawing>
<settings>
<setting alwaysvectorfont="no"/>
<setting verticaltext="up"/>
</settings>
<grid distance="0.635" unitdist="mm" unit="mm" style="lines" multiple="1" display="no" altdistance="5" altunitdist="mil" altunit="mm"/>
<layers>
<layer number="1" name="Top" color="4" fill="1" visible="yes" active="yes"/>
<layer number="16" name="Bottom" color="1" fill="1" visible="yes" active="yes"/>
<layer number="17" name="Pads" color="2" fill="1" visible="yes" active="yes"/>
<layer number="18" name="Vias" color="2" fill="1" visible="yes" active="yes"/>
<layer number="19" name="Unrouted" color="6" fill="1" visible="yes" active="yes"/>
<layer number="20" name="Dimension" color="24" fill="1" visible="yes" active="yes"/>
<layer number="21" name="tPlace" color="7" fill="1" visible="yes" active="yes"/>
<layer number="22" name="bPlace" color="7" fill="1" visible="yes" active="yes"/>
<layer number="23" name="tOrigins" color="15" fill="1" visible="yes" active="yes"/>
<layer number="24" name="bOrigins" color="15" fill="1" visible="yes" active="yes"/>
<layer number="25" name="tNames" color="7" fill="1" visible="yes" active="yes"/>
<layer number="26" name="bNames" color="7" fill="1" visible="yes" active="yes"/>
<layer number="27" name="tValues" color="7" fill="1" visible="yes" active="yes"/>
<layer number="28" name="bValues" color="7" fill="1" visible="yes" active="yes"/>
<layer number="29" name="tStop" color="7" fill="3" visible="no" active="yes"/>
<layer number="30" name="bStop" color="7" fill="6" visible="no" active="yes"/>
<layer number="31" name="tCream" color="7" fill="4" visible="no" active="yes"/>
<layer number="32" name="bCream" color="7" fill="5" visible="no" active="yes"/>
<layer number="33" name="tFinish" color="6" fill="3" visible="no" active="yes"/>
<layer number="34" name="bFinish" color="6" fill="6" visible="no" active="yes"/>
<layer number="35" name="tGlue" color="7" fill="4" visible="no" active="yes"/>
<layer number="36" name="bGlue" color="7" fill="5" visible="no" active="yes"/>
<layer number="37" name="tTest" color="7" fill="1" visible="no" active="yes"/>
<layer number="38" name="bTest" color="7" fill="1" visible="no" active="yes"/>
<layer number="39" name="tKeepout" color="4" fill="11" visible="yes" active="yes"/>
<layer number="40" name="bKeepout" color="1" fill="11" visible="yes" active="yes"/>
<layer number="41" name="tRestrict" color="4" fill="10" visible="yes" active="yes"/>
<layer number="42" name="bRestrict" color="1" fill="10" visible="yes" active="yes"/>
<layer number="43" name="vRestrict" color="2" fill="10" visible="yes" active="yes"/>
<layer number="44" name="Drills" color="7" fill="1" visible="no" active="yes"/>
<layer number="45" name="Holes" color="7" fill="1" visible="no" active="yes"/>
<layer number="46" name="Milling" color="3" fill="1" visible="no" active="yes"/>
<layer number="47" name="Measures" color="7" fill="1" visible="no" active="yes"/>
<layer number="48" name="Document" color="7" fill="1" visible="yes" active="yes"/>
<layer number="49" name="Reference" color="7" fill="1" visible="yes" active="yes"/>
<layer number="50" name="dxf" color="7" fill="1" visible="no" active="no"/>
<layer number="51" name="tDocu" color="7" fill="1" visible="yes" active="yes"/>
<layer number="52" name="bDocu" color="7" fill="1" visible="yes" active="yes"/>
<layer number="53" name="tGND_GNDA" color="7" fill="9" visible="no" active="no"/>
<layer number="54" name="bGND_GNDA" color="1" fill="9" visible="no" active="no"/>
<layer number="56" name="wert" color="7" fill="1" visible="no" active="no"/>
<layer number="57" name="tCAD" color="7" fill="1" visible="no" active="no"/>
<layer number="59" name="tCarbon" color="7" fill="1" visible="no" active="no"/>
<layer number="60" name="bCarbon" color="7" fill="1" visible="no" active="no"/>
<layer number="88" name="SimResults" color="9" fill="1" visible="no" active="no"/>
<layer number="89" name="SimProbes" color="9" fill="1" visible="no" active="no"/>
<layer number="90" name="Modules" color="5" fill="1" visible="no" active="no"/>
<layer number="91" name="Nets" color="2" fill="1" visible="no" active="no"/>
<layer number="92" name="Busses" color="1" fill="1" visible="no" active="no"/>
<layer number="93" name="Pins" color="2" fill="1" visible="no" active="no"/>
<layer number="94" name="Symbols" color="4" fill="1" visible="no" active="no"/>
<layer number="95" name="Names" color="7" fill="1" visible="no" active="no"/>
<layer number="96" name="Values" color="7" fill="1" visible="no" active="no"/>
<layer number="97" name="Info" color="7" fill="1" visible="no" active="no"/>
<layer number="98" name="Guide" color="6" fill="1" visible="no" active="no"/>
<layer number="99" name="SpiceOrder" color="7" fill="1" visible="no" active="no"/>
<layer number="100" name="Muster" color="7" fill="1" visible="no" active="no"/>
<layer number="101" name="Patch_Top" color="12" fill="4" visible="yes" active="yes"/>
<layer number="102" name="Vscore" color="7" fill="1" visible="yes" active="yes"/>
<layer number="103" name="tMap" color="7" fill="1" visible="yes" active="yes"/>
<layer number="104" name="Name" color="16" fill="1" visible="yes" active="yes"/>
<layer number="105" name="tPlate" color="7" fill="1" visible="yes" active="yes"/>
<layer number="106" name="bPlate" color="7" fill="1" visible="yes" active="yes"/>
<layer number="107" name="Crop" color="7" fill="1" visible="yes" active="yes"/>
<layer number="108" name="tplace-old" color="10" fill="1" visible="yes" active="yes"/>
<layer number="109" name="ref-old" color="11" fill="1" visible="yes" active="yes"/>
<layer number="110" name="fp0" color="7" fill="1" visible="yes" active="yes"/>
<layer number="111" name="LPC17xx" color="7" fill="1" visible="yes" active="yes"/>
<layer number="112" name="tSilk" color="7" fill="1" visible="yes" active="yes"/>
<layer number="113" name="IDFDebug" color="4" fill="1" visible="yes" active="yes"/>
<layer number="114" name="Badge_Outline" color="7" fill="1" visible="yes" active="yes"/>
<layer number="115" name="ReferenceISLANDS" color="7" fill="1" visible="yes" active="yes"/>
<layer number="116" name="Patch_BOT" color="9" fill="4" visible="yes" active="yes"/>
<layer number="118" name="Rect_Pads" color="7" fill="1" visible="yes" active="yes"/>
<layer number="121" name="_tsilk" color="7" fill="1" visible="yes" active="yes"/>
<layer number="122" name="_bsilk" color="7" fill="1" visible="yes" active="yes"/>
<layer number="123" name="tTestmark" color="7" fill="1" visible="yes" active="yes"/>
<layer number="124" name="bTestmark" color="7" fill="1" visible="yes" active="yes"/>
<layer number="125" name="_tNames" color="7" fill="1" visible="yes" active="yes"/>
<layer number="126" name="_bNames" color="7" fill="1" visible="yes" active="yes"/>
<layer number="127" name="_tValues" color="7" fill="1" visible="yes" active="yes"/>
<layer number="128" name="_bValues" color="7" fill="1" visible="yes" active="yes"/>
<layer number="129" name="Mask" color="7" fill="1" visible="yes" active="yes"/>
<layer number="131" name="tAdjust" color="7" fill="1" visible="yes" active="yes"/>
<layer number="132" name="bAdjust" color="7" fill="1" visible="yes" active="yes"/>
<layer number="144" name="Drill_legend" color="7" fill="1" visible="yes" active="yes"/>
<layer number="150" name="Notes" color="7" fill="1" visible="yes" active="yes"/>
<layer number="151" name="HeatSink" color="7" fill="1" visible="yes" active="yes"/>
<layer number="152" name="_bDocu" color="7" fill="1" visible="yes" active="yes"/>
<layer number="153" name="FabDoc1" color="7" fill="1" visible="yes" active="yes"/>
<layer number="154" name="FabDoc2" color="7" fill="1" visible="yes" active="yes"/>
<layer number="155" name="FabDoc3" color="7" fill="1" visible="yes" active="yes"/>
<layer number="199" name="Contour" color="7" fill="1" visible="yes" active="yes"/>
<layer number="200" name="200bmp" color="1" fill="10" visible="yes" active="yes"/>
<layer number="201" name="201bmp" color="2" fill="10" visible="yes" active="yes"/>
<layer number="202" name="202bmp" color="3" fill="10" visible="yes" active="yes"/>
<layer number="203" name="203bmp" color="4" fill="10" visible="yes" active="yes"/>
<layer number="204" name="204bmp" color="5" fill="10" visible="yes" active="yes"/>
<layer number="205" name="205bmp" color="6" fill="10" visible="yes" active="yes"/>
<layer number="206" name="206bmp" color="7" fill="10" visible="yes" active="yes"/>
<layer number="207" name="207bmp" color="8" fill="10" visible="yes" active="yes"/>
<layer number="208" name="208bmp" color="9" fill="10" visible="yes" active="yes"/>
<layer number="209" name="209bmp" color="7" fill="1" visible="yes" active="yes"/>
<layer number="210" name="210bmp" color="7" fill="1" visible="yes" active="yes"/>
<layer number="211" name="211bmp" color="7" fill="1" visible="yes" active="yes"/>
<layer number="212" name="212bmp" color="7" fill="1" visible="yes" active="yes"/>
<layer number="213" name="213bmp" color="7" fill="1" visible="yes" active="yes"/>
<layer number="214" name="214bmp" color="7" fill="1" visible="yes" active="yes"/>
<layer number="215" name="215bmp" color="7" fill="1" visible="yes" active="yes"/>
<layer number="216" name="216bmp" color="7" fill="1" visible="yes" active="yes"/>
<layer number="217" name="217bmp" color="18" fill="1" visible="no" active="no"/>
<layer number="218" name="218bmp" color="19" fill="1" visible="no" active="no"/>
<layer number="219" name="219bmp" color="20" fill="1" visible="no" active="no"/>
<layer number="220" name="220bmp" color="21" fill="1" visible="no" active="no"/>
<layer number="221" name="221bmp" color="22" fill="1" visible="no" active="no"/>
<layer number="222" name="222bmp" color="23" fill="1" visible="no" active="no"/>
<layer number="223" name="223bmp" color="24" fill="1" visible="no" active="no"/>
<layer number="224" name="224bmp" color="25" fill="1" visible="no" active="no"/>
<layer number="225" name="225bmp" color="7" fill="1" visible="yes" active="yes"/>
<layer number="226" name="226bmp" color="7" fill="1" visible="yes" active="yes"/>
<layer number="227" name="227bmp" color="7" fill="1" visible="yes" active="yes"/>
<layer number="228" name="228bmp" color="7" fill="1" visible="yes" active="yes"/>
<layer number="229" name="229bmp" color="7" fill="1" visible="yes" active="yes"/>
<layer number="230" name="230bmp" color="7" fill="1" visible="yes" active="yes"/>
<layer number="231" name="231bmp" color="7" fill="1" visible="yes" active="yes"/>
<layer number="232" name="Eagle3D_PG2" color="7" fill="1" visible="yes" active="yes"/>
<layer number="233" name="Eagle3D_PG3" color="7" fill="1" visible="yes" active="yes"/>
<layer number="248" name="Housing" color="7" fill="1" visible="yes" active="yes"/>
<layer number="249" name="Edge" color="7" fill="1" visible="yes" active="yes"/>
<layer number="250" name="Descript" color="3" fill="1" visible="no" active="no"/>
<layer number="251" name="SMDround" color="12" fill="11" visible="no" active="no"/>
<layer number="254" name="cooling" color="7" fill="1" visible="yes" active="yes"/>
<layer number="255" name="routoute" color="7" fill="1" visible="yes" active="yes"/>
</layers>
<board>
<plain>
<wire x1="0" y1="0" x2="50" y2="0" width="0" layer="20"/>
<wire x1="50" y1="0" x2="50" y2="67.945" width="0" layer="20"/>
<wire x1="50" y1="67.945" x2="0" y2="67.945" width="0" layer="20"/>
<wire x1="0" y1="67.945" x2="0" y2="0" width="0" layer="20"/>
<polygon width="0.508" layer="42">
<vertex x="15.367" y="24.257"/>
<vertex x="14.604996875" y="23.494996875"/>
<vertex x="14.604996875" y="20.955"/>
<vertex x="19.79083125" y="15.769165625"/>
<vertex x="24.036765625" y="15.769165625"/>
<vertex x="27.32306875" y="19.0679125"/>
<vertex x="27.302396875" y="24.132603125"/>
<vertex x="27.178" y="24.257"/>
</polygon>
<text x="29.21" y="48.26" size="1.4224" layer="51" rot="R90">Created By:</text>
<text x="36.83" y="48.26" size="1.35" layer="51" rot="R90">Anthony Zunino
Mickael Hatzikokolakis
Kyle Kwong</text>
<text x="41.783" y="48.08" size="3" layer="51" rot="R90">DDRTOS</text>
<wire x1="45.72" y1="28.575" x2="46.355" y2="27.94" width="0.1524" layer="51"/>
<wire x1="45.72" y1="33.655" x2="46.355" y2="33.02" width="0.1524" layer="51"/>
<wire x1="45.72" y1="38.735" x2="46.355" y2="38.1" width="0.1524" layer="51"/>
<text x="48.133" y="34.036" size="1.4" layer="51" rot="R90">GND</text>
<text x="48.133" y="29.845" size="1.45" layer="51" rot="R90">5V</text>
<wire x1="45.72" y1="43.815" x2="46.355" y2="43.18" width="0.1524" layer="51"/>
<wire x1="45.72" y1="23.495" x2="46.355" y2="22.86" width="0.1524" layer="51"/>
<text x="46.863" y="26.543" size="1.778" layer="51">+</text>
<text x="48.26" y="24.384" size="1.778" layer="51" rot="R90">-</text>
<text x="48.387" y="41.021" size="1.778" layer="51" rot="R180">+</text>
<text x="48.26" y="42.164" size="1.778" layer="51" rot="R90">-</text>
<text x="48.133" y="44.069" size="1.27" layer="51" rot="R90">RX</text>
<text x="48.26" y="20.828" size="1.27" layer="51" rot="R90">RX</text>
<text x="41.91" y="22.225" size="1.27" layer="51" rot="R90">SPK1</text>
<text x="41.91" y="40.64" size="1.27" layer="51" rot="R90">SPK2</text>
<text x="35.052" y="35.56" size="0.8128" layer="51" rot="R90">5V ON</text>
<text x="48.006" y="17.653" size="1" layer="51" rot="R90">5V</text>
<text x="48.006" y="14.478" size="0.75" layer="51" rot="R90">GND</text>
<wire x1="48.26" y1="17.145" x2="39.37" y2="17.145" width="0.1524" layer="51"/>
<wire x1="43.815" y1="17.145" x2="35.56" y2="17.145" width="0.1524" layer="51"/>
<polygon width="0.508" layer="42">
<vertex x="3.81" y="42.545"/>
<vertex x="2.54" y="41.275"/>
<vertex x="2.54" y="40.005"/>
<vertex x="3.81" y="38.735"/>
<vertex x="6.35" y="38.735"/>
<vertex x="7.62" y="40.005"/>
<vertex x="7.62" y="41.275"/>
<vertex x="6.35" y="42.545"/>
</polygon>
<text x="33.655" y="1.27" size="0.8128" layer="51" rot="R90">SPK1 
DAC_R</text>
<text x="33.655" y="10.16" size="0.8128" layer="51" rot="R90">SPK2
DAC_R</text>
<text x="30.48" y="3.683" size="1.4224" layer="51" rot="R90">CMPE 244
Preetpal Kang</text>
</plain>
<libraries>
<library name="SparkFun-Connectors" urn="urn:adsk.eagle:library:513">
<description>&lt;h3&gt;SparkFun Connectors&lt;/h3&gt;
This library contains electrically-functional connectors. 
&lt;br&gt;
&lt;br&gt;
We've spent an enormous amount of time creating and checking these footprints and parts, but it is &lt;b&gt; the end user's responsibility&lt;/b&gt; to ensure correctness and suitablity for a given componet or application. 
&lt;br&gt;
&lt;br&gt;If you enjoy using this library, please buy one of our products at &lt;a href=" www.sparkfun.com"&gt;SparkFun.com&lt;/a&gt;.
&lt;br&gt;
&lt;br&gt;
&lt;b&gt;Licensing:&lt;/b&gt; Creative Commons ShareAlike 4.0 International - https://creativecommons.org/licenses/by-sa/4.0/ 
&lt;br&gt;
&lt;br&gt;
You are welcome to use this library for commercial purposes. For attribution, we ask that when you begin to sell your device using our footprint, you email us with a link to the product being sold. We want bragging rights that we helped (in a very small part) to create your 8th world wonder. We would like the opportunity to feature your device on our homepage.</description>
<packages>
<package name="POWER_JACK_PTH" urn="urn:adsk.eagle:footprint:37872/1" library_version="1">
<description>&lt;h3&gt;DC Barrel Power Jack/Connector PTH&lt;/h3&gt;
5.5mm jack, 2.1mm center pole diameter
&lt;p&gt;Specifications:
&lt;ul&gt;&lt;li&gt;Pin count: 3&lt;/li&gt;
&lt;/ul&gt;&lt;/p&gt;
&lt;p&gt;&lt;a href=”https://www.sparkfun.com/datasheets/Prototyping/Barrel-Connector-PJ-202A.pdf”&gt;Datasheet referenced for footprint&lt;/a&gt;&lt;/p&gt;
&lt;p&gt;Example device(s):
&lt;ul&gt;&lt;li&gt;POWER_JACK&lt;/li&gt;
&lt;/ul&gt;&lt;/p&gt;</description>
<wire x1="4.5" y1="13.7" x2="2.4" y2="13.7" width="0.2032" layer="21"/>
<wire x1="-4.5" y1="3" x2="-4.5" y2="0.1" width="0.2032" layer="51"/>
<wire x1="4.5" y1="0.1" x2="4.5" y2="3" width="0.2032" layer="51"/>
<wire x1="4.5" y1="0.1" x2="-4.5" y2="0.1" width="0.2032" layer="51"/>
<wire x1="4.5" y1="3" x2="4.5" y2="8.3" width="0.2032" layer="21"/>
<wire x1="4.5" y1="13.7" x2="4.5" y2="13" width="0.2032" layer="21"/>
<wire x1="-4.5" y1="3" x2="-4.5" y2="13.7" width="0.2032" layer="21"/>
<wire x1="-4.5" y1="13.7" x2="-2.4" y2="13.7" width="0.2032" layer="21"/>
<wire x1="-4.5" y1="3" x2="4.5" y2="3" width="0.2032" layer="21"/>
<pad name="PWR" x="0" y="13.7" drill="2.9972" diameter="4.318"/>
<pad name="GND" x="0" y="7.7" drill="2.9972" diameter="4.318"/>
<pad name="GNDBREAK" x="4.7" y="10.7" drill="2.9972" diameter="4.318" rot="R90"/>
<text x="-1.3716" y="1.8288" size="0.6096" layer="25" font="vector" ratio="20">&gt;NAME</text>
<text x="-1.7526" y="0.8128" size="0.6096" layer="27" font="vector" ratio="20">&gt;VALUE</text>
</package>
<package name="1X10" urn="urn:adsk.eagle:footprint:37782/1" library_version="1">
<description>&lt;h3&gt;Plated Through Hole -10 Pin&lt;/h3&gt;
&lt;p&gt;Specifications:
&lt;ul&gt;&lt;li&gt;Pin count:10&lt;/li&gt;
&lt;li&gt;Pin pitch:0.1"&lt;/li&gt;
&lt;/ul&gt;&lt;/p&gt;
&lt;p&gt;Example device(s):
&lt;ul&gt;&lt;li&gt;CONN_10&lt;/li&gt;
&lt;/ul&gt;&lt;/p&gt;</description>
<wire x1="14.605" y1="1.27" x2="15.875" y2="1.27" width="0.2032" layer="21"/>
<wire x1="15.875" y1="1.27" x2="16.51" y2="0.635" width="0.2032" layer="21"/>
<wire x1="16.51" y1="-0.635" x2="15.875" y2="-1.27" width="0.2032" layer="21"/>
<wire x1="11.43" y1="0.635" x2="12.065" y2="1.27" width="0.2032" layer="21"/>
<wire x1="12.065" y1="1.27" x2="13.335" y2="1.27" width="0.2032" layer="21"/>
<wire x1="13.335" y1="1.27" x2="13.97" y2="0.635" width="0.2032" layer="21"/>
<wire x1="13.97" y1="-0.635" x2="13.335" y2="-1.27" width="0.2032" layer="21"/>
<wire x1="13.335" y1="-1.27" x2="12.065" y2="-1.27" width="0.2032" layer="21"/>
<wire x1="12.065" y1="-1.27" x2="11.43" y2="-0.635" width="0.2032" layer="21"/>
<wire x1="14.605" y1="1.27" x2="13.97" y2="0.635" width="0.2032" layer="21"/>
<wire x1="13.97" y1="-0.635" x2="14.605" y2="-1.27" width="0.2032" layer="21"/>
<wire x1="15.875" y1="-1.27" x2="14.605" y2="-1.27" width="0.2032" layer="21"/>
<wire x1="6.985" y1="1.27" x2="8.255" y2="1.27" width="0.2032" layer="21"/>
<wire x1="8.255" y1="1.27" x2="8.89" y2="0.635" width="0.2032" layer="21"/>
<wire x1="8.89" y1="-0.635" x2="8.255" y2="-1.27" width="0.2032" layer="21"/>
<wire x1="8.89" y1="0.635" x2="9.525" y2="1.27" width="0.2032" layer="21"/>
<wire x1="9.525" y1="1.27" x2="10.795" y2="1.27" width="0.2032" layer="21"/>
<wire x1="10.795" y1="1.27" x2="11.43" y2="0.635" width="0.2032" layer="21"/>
<wire x1="11.43" y1="-0.635" x2="10.795" y2="-1.27" width="0.2032" layer="21"/>
<wire x1="10.795" y1="-1.27" x2="9.525" y2="-1.27" width="0.2032" layer="21"/>
<wire x1="9.525" y1="-1.27" x2="8.89" y2="-0.635" width="0.2032" layer="21"/>
<wire x1="3.81" y1="0.635" x2="4.445" y2="1.27" width="0.2032" layer="21"/>
<wire x1="4.445" y1="1.27" x2="5.715" y2="1.27" width="0.2032" layer="21"/>
<wire x1="5.715" y1="1.27" x2="6.35" y2="0.635" width="0.2032" layer="21"/>
<wire x1="6.35" y1="-0.635" x2="5.715" y2="-1.27" width="0.2032" layer="21"/>
<wire x1="5.715" y1="-1.27" x2="4.445" y2="-1.27" width="0.2032" layer="21"/>
<wire x1="4.445" y1="-1.27" x2="3.81" y2="-0.635" width="0.2032" layer="21"/>
<wire x1="6.985" y1="1.27" x2="6.35" y2="0.635" width="0.2032" layer="21"/>
<wire x1="6.35" y1="-0.635" x2="6.985" y2="-1.27" width="0.2032" layer="21"/>
<wire x1="8.255" y1="-1.27" x2="6.985" y2="-1.27" width="0.2032" layer="21"/>
<wire x1="-0.635" y1="1.27" x2="0.635" y2="1.27" width="0.2032" layer="21"/>
<wire x1="0.635" y1="1.27" x2="1.27" y2="0.635" width="0.2032" layer="21"/>
<wire x1="1.27" y1="-0.635" x2="0.635" y2="-1.27" width="0.2032" layer="21"/>
<wire x1="1.27" y1="0.635" x2="1.905" y2="1.27" width="0.2032" layer="21"/>
<wire x1="1.905" y1="1.27" x2="3.175" y2="1.27" width="0.2032" layer="21"/>
<wire x1="3.175" y1="1.27" x2="3.81" y2="0.635" width="0.2032" layer="21"/>
<wire x1="3.81" y1="-0.635" x2="3.175" y2="-1.27" width="0.2032" layer="21"/>
<wire x1="3.175" y1="-1.27" x2="1.905" y2="-1.27" width="0.2032" layer="21"/>
<wire x1="1.905" y1="-1.27" x2="1.27" y2="-0.635" width="0.2032" layer="21"/>
<wire x1="-1.27" y1="0.635" x2="-1.27" y2="-0.635" width="0.2032" layer="21"/>
<wire x1="-0.635" y1="1.27" x2="-1.27" y2="0.635" width="0.2032" layer="21"/>
<wire x1="-1.27" y1="-0.635" x2="-0.635" y2="-1.27" width="0.2032" layer="21"/>
<wire x1="0.635" y1="-1.27" x2="-0.635" y2="-1.27" width="0.2032" layer="21"/>
<wire x1="17.145" y1="1.27" x2="18.415" y2="1.27" width="0.2032" layer="21"/>
<wire x1="18.415" y1="1.27" x2="19.05" y2="0.635" width="0.2032" layer="21"/>
<wire x1="19.05" y1="-0.635" x2="18.415" y2="-1.27" width="0.2032" layer="21"/>
<wire x1="17.145" y1="1.27" x2="16.51" y2="0.635" width="0.2032" layer="21"/>
<wire x1="16.51" y1="-0.635" x2="17.145" y2="-1.27" width="0.2032" layer="21"/>
<wire x1="18.415" y1="-1.27" x2="17.145" y2="-1.27" width="0.2032" layer="21"/>
<wire x1="19.685" y1="1.27" x2="20.955" y2="1.27" width="0.2032" layer="21"/>
<wire x1="20.955" y1="1.27" x2="21.59" y2="0.635" width="0.2032" layer="21"/>
<wire x1="21.59" y1="-0.635" x2="20.955" y2="-1.27" width="0.2032" layer="21"/>
<wire x1="19.685" y1="1.27" x2="19.05" y2="0.635" width="0.2032" layer="21"/>
<wire x1="19.05" y1="-0.635" x2="19.685" y2="-1.27" width="0.2032" layer="21"/>
<wire x1="20.955" y1="-1.27" x2="19.685" y2="-1.27" width="0.2032" layer="21"/>
<wire x1="22.225" y1="1.27" x2="23.495" y2="1.27" width="0.2032" layer="21"/>
<wire x1="23.495" y1="1.27" x2="24.13" y2="0.635" width="0.2032" layer="21"/>
<wire x1="24.13" y1="0.635" x2="24.13" y2="-0.635" width="0.2032" layer="21"/>
<wire x1="24.13" y1="-0.635" x2="23.495" y2="-1.27" width="0.2032" layer="21"/>
<wire x1="22.225" y1="1.27" x2="21.59" y2="0.635" width="0.2032" layer="21"/>
<wire x1="21.59" y1="-0.635" x2="22.225" y2="-1.27" width="0.2032" layer="21"/>
<wire x1="23.495" y1="-1.27" x2="22.225" y2="-1.27" width="0.2032" layer="21"/>
<pad name="1" x="0" y="0" drill="1.016" diameter="1.8796" rot="R90"/>
<pad name="2" x="2.54" y="0" drill="1.016" diameter="1.8796" rot="R90"/>
<pad name="3" x="5.08" y="0" drill="1.016" diameter="1.8796" rot="R90"/>
<pad name="4" x="7.62" y="0" drill="1.016" diameter="1.8796" rot="R90"/>
<pad name="5" x="10.16" y="0" drill="1.016" diameter="1.8796" rot="R90"/>
<pad name="6" x="12.7" y="0" drill="1.016" diameter="1.8796" rot="R90"/>
<pad name="7" x="15.24" y="0" drill="1.016" diameter="1.8796" rot="R90"/>
<pad name="8" x="17.78" y="0" drill="1.016" diameter="1.8796" rot="R90"/>
<pad name="9" x="20.32" y="0" drill="1.016" diameter="1.8796" rot="R90"/>
<pad name="10" x="22.86" y="0" drill="1.016" diameter="1.8796" rot="R90"/>
<rectangle x1="14.986" y1="-0.254" x2="15.494" y2="0.254" layer="51"/>
<rectangle x1="12.446" y1="-0.254" x2="12.954" y2="0.254" layer="51"/>
<rectangle x1="9.906" y1="-0.254" x2="10.414" y2="0.254" layer="51"/>
<rectangle x1="7.366" y1="-0.254" x2="7.874" y2="0.254" layer="51"/>
<rectangle x1="4.826" y1="-0.254" x2="5.334" y2="0.254" layer="51"/>
<rectangle x1="2.286" y1="-0.254" x2="2.794" y2="0.254" layer="51"/>
<rectangle x1="-0.254" y1="-0.254" x2="0.254" y2="0.254" layer="51"/>
<rectangle x1="17.526" y1="-0.254" x2="18.034" y2="0.254" layer="51"/>
<rectangle x1="20.066" y1="-0.254" x2="20.574" y2="0.254" layer="51"/>
<rectangle x1="22.606" y1="-0.254" x2="23.114" y2="0.254" layer="51"/>
<text x="-1.27" y="1.397" size="0.6096" layer="25" font="vector" ratio="20">&gt;NAME</text>
<text x="-1.27" y="-2.032" size="0.6096" layer="27" font="vector" ratio="20">&gt;VALUE</text>
</package>
<package name="1X03" urn="urn:adsk.eagle:footprint:37678/1" library_version="1">
<description>&lt;h3&gt;Plated Through Hole - 3 Pin&lt;/h3&gt;
&lt;p&gt;Specifications:
&lt;ul&gt;&lt;li&gt;Pin count:3&lt;/li&gt;
&lt;li&gt;Pin pitch:0.1"&lt;/li&gt;
&lt;/ul&gt;&lt;/p&gt;
&lt;p&gt;Example device(s):
&lt;ul&gt;&lt;li&gt;CONN_03&lt;/li&gt;
&lt;/ul&gt;&lt;/p&gt;</description>
<wire x1="3.81" y1="0.635" x2="4.445" y2="1.27" width="0.2032" layer="21"/>
<wire x1="4.445" y1="1.27" x2="5.715" y2="1.27" width="0.2032" layer="21"/>
<wire x1="5.715" y1="1.27" x2="6.35" y2="0.635" width="0.2032" layer="21"/>
<wire x1="6.35" y1="-0.635" x2="5.715" y2="-1.27" width="0.2032" layer="21"/>
<wire x1="5.715" y1="-1.27" x2="4.445" y2="-1.27" width="0.2032" layer="21"/>
<wire x1="4.445" y1="-1.27" x2="3.81" y2="-0.635" width="0.2032" layer="21"/>
<wire x1="-0.635" y1="1.27" x2="0.635" y2="1.27" width="0.2032" layer="21"/>
<wire x1="0.635" y1="1.27" x2="1.27" y2="0.635" width="0.2032" layer="21"/>
<wire x1="1.27" y1="-0.635" x2="0.635" y2="-1.27" width="0.2032" layer="21"/>
<wire x1="1.27" y1="0.635" x2="1.905" y2="1.27" width="0.2032" layer="21"/>
<wire x1="1.905" y1="1.27" x2="3.175" y2="1.27" width="0.2032" layer="21"/>
<wire x1="3.175" y1="1.27" x2="3.81" y2="0.635" width="0.2032" layer="21"/>
<wire x1="3.81" y1="-0.635" x2="3.175" y2="-1.27" width="0.2032" layer="21"/>
<wire x1="3.175" y1="-1.27" x2="1.905" y2="-1.27" width="0.2032" layer="21"/>
<wire x1="1.905" y1="-1.27" x2="1.27" y2="-0.635" width="0.2032" layer="21"/>
<wire x1="-1.27" y1="0.635" x2="-1.27" y2="-0.635" width="0.2032" layer="21"/>
<wire x1="-0.635" y1="1.27" x2="-1.27" y2="0.635" width="0.2032" layer="21"/>
<wire x1="-1.27" y1="-0.635" x2="-0.635" y2="-1.27" width="0.2032" layer="21"/>
<wire x1="0.635" y1="-1.27" x2="-0.635" y2="-1.27" width="0.2032" layer="21"/>
<wire x1="6.35" y1="0.635" x2="6.35" y2="-0.635" width="0.2032" layer="21"/>
<pad name="1" x="0" y="0" drill="1.016" diameter="1.8796" rot="R90"/>
<pad name="2" x="2.54" y="0" drill="1.016" diameter="1.8796" rot="R90"/>
<pad name="3" x="5.08" y="0" drill="1.016" diameter="1.8796" rot="R90"/>
<rectangle x1="4.826" y1="-0.254" x2="5.334" y2="0.254" layer="51"/>
<rectangle x1="2.286" y1="-0.254" x2="2.794" y2="0.254" layer="51"/>
<rectangle x1="-0.254" y1="-0.254" x2="0.254" y2="0.254" layer="51"/>
<text x="-1.27" y="1.397" size="0.6096" layer="25" font="vector" ratio="20">&gt;NAME</text>
<text x="-1.27" y="-2.032" size="0.6096" layer="27" font="vector" ratio="20">&gt;VALUE</text>
</package>
<package name="1X04" urn="urn:adsk.eagle:footprint:37702/1" library_version="1">
<description>&lt;h3&gt;Plated Through Hole - 4 Pin&lt;/h3&gt;
&lt;p&gt;Specifications:
&lt;ul&gt;&lt;li&gt;Pin count:4&lt;/li&gt;
&lt;li&gt;Pin pitch:0.1"&lt;/li&gt;
&lt;/ul&gt;&lt;/p&gt;
&lt;p&gt;Example device(s):
&lt;ul&gt;&lt;li&gt;CONN_04&lt;/li&gt;
&lt;/ul&gt;&lt;/p&gt;</description>
<wire x1="6.985" y1="1.27" x2="8.255" y2="1.27" width="0.2032" layer="21"/>
<wire x1="8.255" y1="1.27" x2="8.89" y2="0.635" width="0.2032" layer="21"/>
<wire x1="8.89" y1="-0.635" x2="8.255" y2="-1.27" width="0.2032" layer="21"/>
<wire x1="3.81" y1="0.635" x2="4.445" y2="1.27" width="0.2032" layer="21"/>
<wire x1="4.445" y1="1.27" x2="5.715" y2="1.27" width="0.2032" layer="21"/>
<wire x1="5.715" y1="1.27" x2="6.35" y2="0.635" width="0.2032" layer="21"/>
<wire x1="6.35" y1="-0.635" x2="5.715" y2="-1.27" width="0.2032" layer="21"/>
<wire x1="5.715" y1="-1.27" x2="4.445" y2="-1.27" width="0.2032" layer="21"/>
<wire x1="4.445" y1="-1.27" x2="3.81" y2="-0.635" width="0.2032" layer="21"/>
<wire x1="6.985" y1="1.27" x2="6.35" y2="0.635" width="0.2032" layer="21"/>
<wire x1="6.35" y1="-0.635" x2="6.985" y2="-1.27" width="0.2032" layer="21"/>
<wire x1="8.255" y1="-1.27" x2="6.985" y2="-1.27" width="0.2032" layer="21"/>
<wire x1="-0.635" y1="1.27" x2="0.635" y2="1.27" width="0.2032" layer="21"/>
<wire x1="0.635" y1="1.27" x2="1.27" y2="0.635" width="0.2032" layer="21"/>
<wire x1="1.27" y1="-0.635" x2="0.635" y2="-1.27" width="0.2032" layer="21"/>
<wire x1="1.27" y1="0.635" x2="1.905" y2="1.27" width="0.2032" layer="21"/>
<wire x1="1.905" y1="1.27" x2="3.175" y2="1.27" width="0.2032" layer="21"/>
<wire x1="3.175" y1="1.27" x2="3.81" y2="0.635" width="0.2032" layer="21"/>
<wire x1="3.81" y1="-0.635" x2="3.175" y2="-1.27" width="0.2032" layer="21"/>
<wire x1="3.175" y1="-1.27" x2="1.905" y2="-1.27" width="0.2032" layer="21"/>
<wire x1="1.905" y1="-1.27" x2="1.27" y2="-0.635" width="0.2032" layer="21"/>
<wire x1="-1.27" y1="0.635" x2="-1.27" y2="-0.635" width="0.2032" layer="21"/>
<wire x1="-0.635" y1="1.27" x2="-1.27" y2="0.635" width="0.2032" layer="21"/>
<wire x1="-1.27" y1="-0.635" x2="-0.635" y2="-1.27" width="0.2032" layer="21"/>
<wire x1="0.635" y1="-1.27" x2="-0.635" y2="-1.27" width="0.2032" layer="21"/>
<wire x1="8.89" y1="0.635" x2="8.89" y2="-0.635" width="0.2032" layer="21"/>
<pad name="1" x="0" y="0" drill="1.016" diameter="1.8796" rot="R90"/>
<pad name="2" x="2.54" y="0" drill="1.016" diameter="1.8796" rot="R90"/>
<pad name="3" x="5.08" y="0" drill="1.016" diameter="1.8796" rot="R90"/>
<pad name="4" x="7.62" y="0" drill="1.016" diameter="1.8796" rot="R90"/>
<rectangle x1="7.366" y1="-0.254" x2="7.874" y2="0.254" layer="51"/>
<rectangle x1="4.826" y1="-0.254" x2="5.334" y2="0.254" layer="51"/>
<rectangle x1="2.286" y1="-0.254" x2="2.794" y2="0.254" layer="51"/>
<rectangle x1="-0.254" y1="-0.254" x2="0.254" y2="0.254" layer="51"/>
<text x="-1.27" y="1.397" size="0.6096" layer="25" font="vector" ratio="20">&gt;NAME</text>
<text x="-1.27" y="-2.032" size="0.6096" layer="27" font="vector" ratio="20">&gt;VALUE</text>
</package>
</packages>
<packages3d>
<package3d name="POWER_JACK_PTH" urn="urn:adsk.eagle:package:38231/1" type="box" library_version="1">
<description>DC Barrel Power Jack/Connector PTH
5.5mm jack, 2.1mm center pole diameter
Specifications:
Pin count: 3

Datasheet referenced for footprint
Example device(s):
POWER_JACK
</description>
<packageinstances>
<packageinstance name="POWER_JACK_PTH"/>
</packageinstances>
</package3d>
<package3d name="1X10" urn="urn:adsk.eagle:package:38157/1" type="box" library_version="1">
<description>Plated Through Hole -10 Pin
Specifications:
Pin count:10
Pin pitch:0.1"

Example device(s):
CONN_10
</description>
<packageinstances>
<packageinstance name="1X10"/>
</packageinstances>
</package3d>
<package3d name="1X03" urn="urn:adsk.eagle:package:38063/1" type="box" library_version="1">
<description>Plated Through Hole - 3 Pin
Specifications:
Pin count:3
Pin pitch:0.1"

Example device(s):
CONN_03
</description>
<packageinstances>
<packageinstance name="1X03"/>
</packageinstances>
</package3d>
<package3d name="1X04" urn="urn:adsk.eagle:package:38085/1" type="box" library_version="1">
<description>Plated Through Hole - 4 Pin
Specifications:
Pin count:4
Pin pitch:0.1"

Example device(s):
CONN_04
</description>
<packageinstances>
<packageinstance name="1X04"/>
</packageinstances>
</package3d>
</packages3d>
</library>
<library name="DFR0299">
<packages>
<package name="MODULE_DFR0299">
<wire x1="-10.16" y1="-10.16" x2="-10.16" y2="10.16" width="0.127" layer="21"/>
<wire x1="-10.16" y1="10.16" x2="10.16" y2="10.16" width="0.127" layer="21"/>
<wire x1="10.16" y1="10.16" x2="10.16" y2="-10.16" width="0.127" layer="21"/>
<wire x1="10.16" y1="-10.16" x2="-10.16" y2="-10.16" width="0.127" layer="21"/>
<wire x1="10.16" y1="10.16" x2="10.16" y2="-10.16" width="0.127" layer="51"/>
<wire x1="10.16" y1="-10.16" x2="-10.16" y2="-10.16" width="0.127" layer="51"/>
<wire x1="-10.16" y1="-10.16" x2="-10.16" y2="10.16" width="0.127" layer="51"/>
<wire x1="-10.16" y1="10.16" x2="10.16" y2="10.16" width="0.127" layer="51"/>
<wire x1="-10.41" y1="10.41" x2="10.41" y2="10.41" width="0.05" layer="39"/>
<wire x1="10.41" y1="10.41" x2="10.41" y2="-10.41" width="0.05" layer="39"/>
<wire x1="10.41" y1="-10.41" x2="-10.41" y2="-10.41" width="0.05" layer="39"/>
<wire x1="-10.41" y1="-10.41" x2="-10.41" y2="10.41" width="0.05" layer="39"/>
<text x="-10.4" y="10.6" size="1.27" layer="25">&gt;NAME</text>
<text x="-10.4" y="-11.7" size="1.27" layer="27">&gt;VALUE</text>
<circle x="-10.8" y="8.89" radius="0.1" width="0.2" layer="51"/>
<circle x="-10.8" y="8.89" radius="0.1" width="0.2" layer="21"/>
<pad name="4" x="-9.017" y="1.27" drill="0.8"/>
<pad name="5" x="-9.017" y="-1.27" drill="0.8"/>
<pad name="13" x="9.017" y="1.27" drill="0.8"/>
<pad name="12" x="9.017" y="-1.27" drill="0.8"/>
<pad name="6" x="-9.017" y="-3.81" drill="0.8"/>
<pad name="3" x="-9.017" y="3.81" drill="0.8"/>
<pad name="14" x="9.017" y="3.81" drill="0.8"/>
<pad name="11" x="9.017" y="-3.81" drill="0.8"/>
<pad name="2" x="-9.017" y="6.35" drill="0.8"/>
<pad name="15" x="9.017" y="6.35" drill="0.8"/>
<pad name="7" x="-9.017" y="-6.35" drill="0.8"/>
<pad name="10" x="9.017" y="-6.35" drill="0.8"/>
<pad name="1" x="-9.017" y="8.89" drill="0.8" shape="square"/>
<pad name="16" x="9.017" y="8.89" drill="0.8"/>
<pad name="8" x="-9.017" y="-8.89" drill="0.8"/>
<pad name="9" x="9.017" y="-8.89" drill="0.8"/>
</package>
</packages>
</library>
<library name="SparkFun-Capacitors" urn="urn:adsk.eagle:library:510">
<description>&lt;h3&gt;SparkFun Capacitors&lt;/h3&gt;
This library contains capacitors. 
&lt;br&gt;
&lt;br&gt;
We've spent an enormous amount of time creating and checking these footprints and parts, but it is &lt;b&gt; the end user's responsibility&lt;/b&gt; to ensure correctness and suitablity for a given componet or application. 
&lt;br&gt;
&lt;br&gt;If you enjoy using this library, please buy one of our products at &lt;a href=" www.sparkfun.com"&gt;SparkFun.com&lt;/a&gt;.
&lt;br&gt;
&lt;br&gt;
&lt;b&gt;Licensing:&lt;/b&gt; Creative Commons ShareAlike 4.0 International - https://creativecommons.org/licenses/by-sa/4.0/ 
&lt;br&gt;
&lt;br&gt;
You are welcome to use this library for commercial purposes. For attribution, we ask that when you begin to sell your device using our footprint, you email us with a link to the product being sold. We want bragging rights that we helped (in a very small part) to create your 8th world wonder. We would like the opportunity to feature your device on our homepage.</description>
<packages>
<package name="CAP-PTH-SMALL-KIT" urn="urn:adsk.eagle:footprint:37404/1" library_version="1">
<description>&lt;h3&gt;CAP-PTH-SMALL-KIT&lt;/h3&gt;
Commonly used for small ceramic capacitors. Like our 0.1uF (http://www.sparkfun.com/products/8375) or 22pF caps (http://www.sparkfun.com/products/8571).&lt;br&gt;
&lt;br&gt;
&lt;b&gt;Warning:&lt;/b&gt; This is the KIT version of this package. This package has a smaller diameter top stop mask, which doesn't cover the diameter of the pad. This means only the bottom side of the pads' copper will be exposed. You'll only be able to solder to the bottom side.</description>
<wire x1="0" y1="0.635" x2="0" y2="-0.635" width="0.254" layer="21"/>
<wire x1="-2.667" y1="1.27" x2="2.667" y2="1.27" width="0.254" layer="21"/>
<wire x1="2.667" y1="1.27" x2="2.667" y2="-1.27" width="0.254" layer="21"/>
<wire x1="2.667" y1="-1.27" x2="-2.667" y2="-1.27" width="0.254" layer="21"/>
<wire x1="-2.667" y1="-1.27" x2="-2.667" y2="1.27" width="0.254" layer="21"/>
<pad name="1" x="-1.397" y="0" drill="1.016" diameter="2.032" stop="no"/>
<pad name="2" x="1.397" y="0" drill="1.016" diameter="2.032" stop="no"/>
<polygon width="0.127" layer="30">
<vertex x="-1.4021" y="-0.9475" curve="-90"/>
<vertex x="-2.357" y="-0.0178" curve="-90.011749"/>
<vertex x="-1.4046" y="0.9576" curve="-90"/>
<vertex x="-0.4546" y="-0.0204" curve="-90.024193"/>
</polygon>
<polygon width="0.127" layer="29">
<vertex x="-1.4046" y="-0.4395" curve="-90.012891"/>
<vertex x="-1.8491" y="-0.0153" curve="-90"/>
<vertex x="-1.4046" y="0.452" curve="-90"/>
<vertex x="-0.9627" y="-0.0051" curve="-90.012967"/>
</polygon>
<polygon width="0.127" layer="30">
<vertex x="1.397" y="-0.9475" curve="-90"/>
<vertex x="0.4421" y="-0.0178" curve="-90.011749"/>
<vertex x="1.3945" y="0.9576" curve="-90"/>
<vertex x="2.3445" y="-0.0204" curve="-90.024193"/>
</polygon>
<polygon width="0.127" layer="29">
<vertex x="1.3945" y="-0.4395" curve="-90.012891"/>
<vertex x="0.95" y="-0.0153" curve="-90"/>
<vertex x="1.3945" y="0.452" curve="-90"/>
<vertex x="1.8364" y="-0.0051" curve="-90.012967"/>
</polygon>
</package>
</packages>
<packages3d>
<package3d name="CAP-PTH-SMALL-KIT" urn="urn:adsk.eagle:package:37428/1" type="box" library_version="1">
<description>CAP-PTH-SMALL-KIT
Commonly used for small ceramic capacitors. Like our 0.1uF (http://www.sparkfun.com/products/8375) or 22pF caps (http://www.sparkfun.com/products/8571).

Warning: This is the KIT version of this package. This package has a smaller diameter top stop mask, which doesn't cover the diameter of the pad. This means only the bottom side of the pads' copper will be exposed. You'll only be able to solder to the bottom side.</description>
<packageinstances>
<packageinstance name="CAP-PTH-SMALL-KIT"/>
</packageinstances>
</package3d>
</packages3d>
</library>
<library name="SparkFun-Resistors" urn="urn:adsk.eagle:library:532">
<description>&lt;h3&gt;SparkFun Resistors&lt;/h3&gt;
This library contains resistors. Reference designator:R. 
&lt;br&gt;
&lt;br&gt;
We've spent an enormous amount of time creating and checking these footprints and parts, but it is &lt;b&gt; the end user's responsibility&lt;/b&gt; to ensure correctness and suitablity for a given componet or application. 
&lt;br&gt;
&lt;br&gt;If you enjoy using this library, please buy one of our products at &lt;a href=" www.sparkfun.com"&gt;SparkFun.com&lt;/a&gt;.
&lt;br&gt;
&lt;br&gt;
&lt;b&gt;Licensing:&lt;/b&gt; Creative Commons ShareAlike 4.0 International - https://creativecommons.org/licenses/by-sa/4.0/ 
&lt;br&gt;
&lt;br&gt;
You are welcome to use this library for commercial purposes. For attribution, we ask that when you begin to sell your device using our footprint, you email us with a link to the product being sold. We want bragging rights that we helped (in a very small part) to create your 8th world wonder. We would like the opportunity to feature your device on our homepage.</description>
<packages>
<package name="AXIAL-0.1-KIT" urn="urn:adsk.eagle:footprint:39621/1" library_version="1">
<description>&lt;h3&gt;AXIAL-0.1-KIT&lt;/h3&gt;
&lt;p&gt;Commonly used for 1/4W through-hole resistors. 0.1" pitch between holes.&lt;/p&gt;
&lt;p&gt;&lt;b&gt;Warning:&lt;/b&gt; This is the KIT version of the AXIAL-0.1 package. This package has a smaller diameter top stop mask, which doesn't cover the diameter of the pad. This means only the bottom side of the pads' copper will be exposed. You'll only be able to solder to the bottom side.&lt;/p&gt;</description>
<wire x1="0" y1="-0.762" x2="0" y2="0" width="0.2032" layer="21"/>
<wire x1="0" y1="0" x2="0" y2="0.762" width="0.2032" layer="21"/>
<wire x1="0.254" y1="0" x2="0" y2="0" width="0.2032" layer="21"/>
<wire x1="0" y1="0" x2="-0.254" y2="0" width="0.2032" layer="21"/>
<pad name="P$1" x="-1.27" y="0" drill="0.9" diameter="1.8796" stop="no"/>
<pad name="P$2" x="1.27" y="0" drill="0.9" diameter="1.8796" stop="no"/>
<text x="0" y="1.143" size="0.6096" layer="25" font="vector" ratio="20" align="bottom-center">&gt;Name</text>
<text x="0" y="-1.143" size="0.6096" layer="27" font="vector" ratio="20" align="top-center">&gt;Value</text>
<circle x="-1.27" y="0" radius="0.4572" width="0" layer="29"/>
<circle x="-1.27" y="0" radius="1.016" width="0" layer="30"/>
<circle x="1.27" y="0" radius="1.016" width="0" layer="30"/>
<circle x="-1.27" y="0" radius="0.4572" width="0" layer="29"/>
<circle x="1.27" y="0" radius="0.4572" width="0" layer="29"/>
</package>
</packages>
<packages3d>
<package3d name="AXIAL-0.1-KIT" urn="urn:adsk.eagle:package:39653/1" type="box" library_version="1">
<description>AXIAL-0.1-KIT
Commonly used for 1/4W through-hole resistors. 0.1" pitch between holes.
Warning: This is the KIT version of the AXIAL-0.1 package. This package has a smaller diameter top stop mask, which doesn't cover the diameter of the pad. This means only the bottom side of the pads' copper will be exposed. You'll only be able to solder to the bottom side.</description>
<packageinstances>
<packageinstance name="AXIAL-0.1-KIT"/>
</packageinstances>
</package3d>
</packages3d>
</library>
<library name="SparkFun-LED" urn="urn:adsk.eagle:library:529">
<description>&lt;h3&gt;SparkFun LEDs&lt;/h3&gt;
This library contains discrete LEDs for illumination or indication, but no displays.
&lt;br&gt;
&lt;br&gt;
We've spent an enormous amount of time creating and checking these footprints and parts, but it is &lt;b&gt; the end user's responsibility&lt;/b&gt; to ensure correctness and suitablity for a given componet or application. 
&lt;br&gt;
&lt;br&gt;If you enjoy using this library, please buy one of our products at &lt;a href=" www.sparkfun.com"&gt;SparkFun.com&lt;/a&gt;.
&lt;br&gt;
&lt;br&gt;
&lt;b&gt;Licensing:&lt;/b&gt; Creative Commons ShareAlike 4.0 International - https://creativecommons.org/licenses/by-sa/4.0/ 
&lt;br&gt;
&lt;br&gt;
You are welcome to use this library for commercial purposes. For attribution, we ask that when you begin to sell your device using our footprint, you email us with a link to the product being sold. We want bragging rights that we helped (in a very small part) to create your 8th world wonder. We would like the opportunity to feature your device on our homepage.</description>
<packages>
<package name="LED_3MM" urn="urn:adsk.eagle:footprint:39306/1" library_version="1">
<description>&lt;h3&gt;LED 3MM PTH&lt;/h3&gt;

3 mm, round.

&lt;p&gt;Specifications:
&lt;ul&gt;&lt;li&gt;Pin count: 2&lt;/li&gt;
&lt;li&gt;Pin pitch: 0.1inch&lt;/li&gt;
&lt;li&gt;Diameter: 3mm&lt;/li&gt;
&lt;/ul&gt;&lt;/p&gt;
&lt;p&gt;Example device(s):
&lt;ul&gt;&lt;li&gt;LED&lt;/li&gt;&lt;/ul&gt;</description>
<wire x1="1.5748" y1="-1.27" x2="1.5748" y2="1.27" width="0.254" layer="51"/>
<wire x1="0" y1="2.032" x2="1.561" y2="1.3009" width="0.254" layer="22" curve="-50.193108" cap="flat"/>
<wire x1="-1.7929" y1="0.9562" x2="0" y2="2.032" width="0.254" layer="22" curve="-61.926949" cap="flat"/>
<wire x1="0" y1="-2.032" x2="1.5512" y2="-1.3126" width="0.254" layer="22" curve="49.763022" cap="flat"/>
<wire x1="-1.7643" y1="-1.0082" x2="0" y2="-2.032" width="0.254" layer="22" curve="60.255215" cap="flat"/>
<wire x1="-2.032" y1="0" x2="-1.7891" y2="0.9634" width="0.254" layer="51" curve="-28.301701" cap="flat"/>
<wire x1="-2.032" y1="0" x2="-1.7306" y2="-1.065" width="0.254" layer="51" curve="31.60822" cap="flat"/>
<wire x1="1.5748" y1="1.2954" x2="1.5748" y2="0.7874" width="0.254" layer="22"/>
<wire x1="1.5748" y1="-1.2954" x2="1.5748" y2="-0.8382" width="0.254" layer="22"/>
<wire x1="0" y1="2.032" x2="1.561" y2="1.3009" width="0.254" layer="21" curve="-50.193108" cap="flat"/>
<wire x1="-1.7929" y1="0.9562" x2="0" y2="2.032" width="0.254" layer="21" curve="-61.926949" cap="flat"/>
<wire x1="0" y1="-2.032" x2="1.5512" y2="-1.3126" width="0.254" layer="21" curve="49.763022" cap="flat"/>
<wire x1="-1.7643" y1="-1.0082" x2="0" y2="-2.032" width="0.254" layer="21" curve="60.255215" cap="flat"/>
<wire x1="1.5748" y1="1.2954" x2="1.5748" y2="0.7874" width="0.254" layer="21"/>
<wire x1="1.5748" y1="-1.2954" x2="1.5748" y2="-0.8382" width="0.254" layer="21"/>
<pad name="A" x="-1.27" y="0" drill="0.8128" diameter="1.8796"/>
<pad name="K" x="1.27" y="0" drill="0.8128" diameter="1.8796"/>
<text x="0" y="2.286" size="0.6096" layer="25" font="vector" ratio="20" align="bottom-center">&gt;NAME</text>
<text x="0" y="-2.286" size="0.6096" layer="27" font="vector" ratio="20" align="top-center">&gt;VALUE</text>
</package>
</packages>
<packages3d>
<package3d name="LED_3MM" urn="urn:adsk.eagle:package:39361/1" type="box" library_version="1">
<description>LED 3MM PTH

3 mm, round.

Specifications:
Pin count: 2
Pin pitch: 0.1inch
Diameter: 3mm

Example device(s):
LED</description>
<packageinstances>
<packageinstance name="LED_3MM"/>
</packageinstances>
</package3d>
</packages3d>
</library>
<library name="SJ1-3523N">
<packages>
<package name="CUI_SJ1-3523N">
<wire x1="-0.4" y1="0.75" x2="0.4" y2="0.75" width="0.0001" layer="46"/>
<wire x1="0.4" y1="0.75" x2="0.4" y2="-0.75" width="0.0001" layer="46"/>
<wire x1="0.4" y1="-0.75" x2="-0.4" y2="-0.75" width="0.0001" layer="46"/>
<wire x1="-0.4" y1="-0.75" x2="-0.4" y2="0.75" width="0.0001" layer="46"/>
<wire x1="-4.5" y1="6" x2="-4.5" y2="2" width="0.0001" layer="46"/>
<wire x1="-4.5" y1="2" x2="-3.3" y2="2" width="0.0001" layer="46"/>
<wire x1="-3.3" y1="2" x2="-3.3" y2="-2" width="0.0001" layer="46"/>
<wire x1="-3.3" y1="-2" x2="-4.5" y2="-2" width="0.0001" layer="46"/>
<wire x1="-4.5" y1="-2" x2="-4.5" y2="-6" width="0.0001" layer="46"/>
<wire x1="7.5" y1="6.2" x2="7.5" y2="-6.2" width="0.127" layer="21"/>
<wire x1="7.5" y1="-6.2" x2="-3.5" y2="-6.2" width="0.127" layer="21"/>
<wire x1="7.5" y1="6.2" x2="-3.5" y2="6.2" width="0.127" layer="21"/>
<wire x1="7.75" y1="6.45" x2="7.75" y2="-6.45" width="0.05" layer="39"/>
<wire x1="7.75" y1="-6.45" x2="-4.75" y2="-6.45" width="0.05" layer="39"/>
<wire x1="-4.75" y1="6.45" x2="7.75" y2="6.45" width="0.05" layer="39"/>
<text x="-3.501409375" y="7.30293125" size="1.270509375" layer="25">&gt;NAME</text>
<text x="-3.50286875" y="-7.005740625" size="1.271040625" layer="27" align="top-left">&gt;VALUE</text>
<wire x1="4.25" y1="4.6" x2="4.25" y2="5.4" width="0.0001" layer="46"/>
<wire x1="4.25" y1="5.4" x2="5.75" y2="5.4" width="0.0001" layer="46"/>
<wire x1="5.75" y1="5.4" x2="5.75" y2="4.6" width="0.0001" layer="46"/>
<wire x1="5.75" y1="4.6" x2="4.25" y2="4.6" width="0.0001" layer="46"/>
<wire x1="4.25" y1="-5.4" x2="4.25" y2="-4.6" width="0.0001" layer="46"/>
<wire x1="4.25" y1="-4.6" x2="5.75" y2="-4.6" width="0.0001" layer="46"/>
<wire x1="5.75" y1="-4.6" x2="5.75" y2="-5.4" width="0.0001" layer="46"/>
<wire x1="5.75" y1="-5.4" x2="4.25" y2="-5.4" width="0.0001" layer="46"/>
<wire x1="7.5" y1="6.2" x2="-3.5" y2="6.2" width="0.127" layer="51"/>
<wire x1="7.5" y1="6.2" x2="7.5" y2="-6.2" width="0.127" layer="51"/>
<wire x1="7.5" y1="-6.2" x2="-3.5" y2="-6.2" width="0.127" layer="51"/>
<wire x1="-3.5" y1="6.2" x2="-3.5" y2="4.5" width="0.127" layer="51"/>
<wire x1="-3.5" y1="4.5" x2="-4.5" y2="4.5" width="0.127" layer="51"/>
<wire x1="-4.5" y1="4.5" x2="-4.5" y2="3" width="0.127" layer="51"/>
<wire x1="-4.5" y1="3" x2="-4.5" y2="-3" width="0.127" layer="51"/>
<wire x1="-4.5" y1="-3" x2="-4.5" y2="-4.5" width="0.127" layer="51"/>
<wire x1="-4.5" y1="-4.5" x2="-3.5" y2="-4.5" width="0.127" layer="51"/>
<wire x1="-3.5" y1="-4.5" x2="-3.5" y2="-6.2" width="0.127" layer="51"/>
<wire x1="-3.5" y1="6.2" x2="-3.5" y2="4.5" width="0.127" layer="21"/>
<wire x1="-3.5" y1="-4.5" x2="-3.5" y2="-6.2" width="0.127" layer="21"/>
<wire x1="-3.5" y1="4.5" x2="-4.3" y2="4.5" width="0.127" layer="21"/>
<wire x1="-3.5" y1="-4.5" x2="-4.3" y2="-4.5" width="0.127" layer="21"/>
<wire x1="-4.5" y1="3" x2="-6.5" y2="3" width="0.127" layer="51"/>
<wire x1="-6.5" y1="3" x2="-6.5" y2="-3" width="0.127" layer="51"/>
<wire x1="-6.5" y1="-3" x2="-4.5" y2="-3" width="0.127" layer="51"/>
<wire x1="-4.75" y1="6.45" x2="-4.75" y2="3.25" width="0.05" layer="39"/>
<wire x1="-4.75" y1="3.25" x2="-6.75" y2="3.25" width="0.05" layer="39"/>
<wire x1="-6.75" y1="3.25" x2="-6.75" y2="-3.25" width="0.05" layer="39"/>
<wire x1="-6.75" y1="-3.25" x2="-4.75" y2="-3.25" width="0.05" layer="39"/>
<wire x1="-4.75" y1="-3.25" x2="-4.75" y2="-6.45" width="0.05" layer="39"/>
<circle x="0" y="6.8" radius="0.17" width="0.34" layer="21"/>
<pad name="1" x="0" y="0" drill="0.8" shape="long" rot="R90"/>
<pad name="2" x="5" y="-5" drill="0.8" shape="long" rot="R180"/>
<pad name="3" x="5" y="5" drill="0.8" shape="long" rot="R180"/>
<hole x="-2.5" y="5" drill="1.2"/>
<hole x="0" y="5" drill="1.2"/>
<hole x="5" y="0" drill="1.2"/>
<hole x="-2.5" y="-5" drill="1.2"/>
<hole x="0" y="-5" drill="1.2"/>
</package>
</packages>
</library>
</libraries>
<attributes>
</attributes>
<variantdefs>
</variantdefs>
<classes>
<class number="0" name="default" width="0" drill="0">
</class>
</classes>
<designrules name="default">
<description language="de">&lt;b&gt;EAGLE Design Rules&lt;/b&gt;
&lt;p&gt;
Die Standard-Design-Rules sind so gewählt, dass sie für 
die meisten Anwendungen passen. Sollte ihre Platine 
besondere Anforderungen haben, treffen Sie die erforderlichen
Einstellungen hier und speichern die Design Rules unter 
einem neuen Namen ab.</description>
<description language="en">&lt;b&gt;EAGLE Design Rules&lt;/b&gt;
&lt;p&gt;
The default Design Rules have been set to cover
a wide range of applications. Your particular design
may have different requirements, so please make the
necessary adjustments and save your customized
design rules under a new name.</description>
<param name="layerSetup" value="(1*16)"/>
<param name="mtCopper" value="0.035mm 0.035mm 0.035mm 0.035mm 0.035mm 0.035mm 0.035mm 0.035mm 0.035mm 0.035mm 0.035mm 0.035mm 0.035mm 0.035mm 0.035mm 0.035mm"/>
<param name="mtIsolate" value="1.5mm 0.15mm 0.2mm 0.15mm 0.2mm 0.15mm 0.2mm 0.15mm 0.2mm 0.15mm 0.2mm 0.15mm 0.2mm 0.15mm 0.2mm"/>
<param name="mdWireWire" value="6mil"/>
<param name="mdWirePad" value="6mil"/>
<param name="mdWireVia" value="6mil"/>
<param name="mdPadPad" value="6mil"/>
<param name="mdPadVia" value="6mil"/>
<param name="mdViaVia" value="6mil"/>
<param name="mdSmdPad" value="6mil"/>
<param name="mdSmdVia" value="6mil"/>
<param name="mdSmdSmd" value="6mil"/>
<param name="mdViaViaSameLayer" value="6mil"/>
<param name="mnLayersViaInSmd" value="2"/>
<param name="mdCopperDimension" value="40mil"/>
<param name="mdDrill" value="6mil"/>
<param name="mdSmdStop" value="0mil"/>
<param name="msWidth" value="6mil"/>
<param name="msDrill" value="0.35mm"/>
<param name="msMicroVia" value="9.99mm"/>
<param name="msBlindViaRatio" value="0.5"/>
<param name="rvPadTop" value="0.25"/>
<param name="rvPadInner" value="0.25"/>
<param name="rvPadBottom" value="0.25"/>
<param name="rvViaOuter" value="0.25"/>
<param name="rvViaInner" value="0.25"/>
<param name="rvMicroViaOuter" value="0.25"/>
<param name="rvMicroViaInner" value="0.25"/>
<param name="rlMinPadTop" value="10mil"/>
<param name="rlMaxPadTop" value="20mil"/>
<param name="rlMinPadInner" value="10mil"/>
<param name="rlMaxPadInner" value="20mil"/>
<param name="rlMinPadBottom" value="10mil"/>
<param name="rlMaxPadBottom" value="20mil"/>
<param name="rlMinViaOuter" value="8mil"/>
<param name="rlMaxViaOuter" value="20mil"/>
<param name="rlMinViaInner" value="8mil"/>
<param name="rlMaxViaInner" value="20mil"/>
<param name="rlMinMicroViaOuter" value="4mil"/>
<param name="rlMaxMicroViaOuter" value="20mil"/>
<param name="rlMinMicroViaInner" value="4mil"/>
<param name="rlMaxMicroViaInner" value="20mil"/>
<param name="psTop" value="-1"/>
<param name="psBottom" value="-1"/>
<param name="psFirst" value="-1"/>
<param name="psElongationLong" value="100"/>
<param name="psElongationOffset" value="100"/>
<param name="mvStopFrame" value="1"/>
<param name="mvCreamFrame" value="0"/>
<param name="mlMinStopFrame" value="4mil"/>
<param name="mlMaxStopFrame" value="4mil"/>
<param name="mlMinCreamFrame" value="0mil"/>
<param name="mlMaxCreamFrame" value="0mil"/>
<param name="mlViaStopLimit" value="0mil"/>
<param name="srRoundness" value="0"/>
<param name="srMinRoundness" value="0mil"/>
<param name="srMaxRoundness" value="0mil"/>
<param name="slThermalIsolate" value="10mil"/>
<param name="slThermalsForVias" value="0"/>
<param name="dpMaxLengthDifference" value="10mm"/>
<param name="dpGapFactor" value="2.5"/>
<param name="checkAngle" value="0"/>
<param name="checkFont" value="1"/>
<param name="checkRestrict" value="1"/>
<param name="checkStop" value="0"/>
<param name="checkValues" value="0"/>
<param name="checkNames" value="1"/>
<param name="checkWireStubs" value="1"/>
<param name="checkPolygonWidth" value="0"/>
<param name="useDiameter" value="13"/>
<param name="maxErrors" value="50"/>
</designrules>
<autorouter>
<pass name="Default">
<param name="RoutingGrid" value="50mil"/>
<param name="AutoGrid" value="1"/>
<param name="Efforts" value="0"/>
<param name="TopRouterVariant" value="1"/>
<param name="tpViaShape" value="round"/>
<param name="PrefDir.1" value="a"/>
<param name="PrefDir.2" value="0"/>
<param name="PrefDir.3" value="0"/>
<param name="PrefDir.4" value="0"/>
<param name="PrefDir.5" value="0"/>
<param name="PrefDir.6" value="0"/>
<param name="PrefDir.7" value="0"/>
<param name="PrefDir.8" value="0"/>
<param name="PrefDir.9" value="0"/>
<param name="PrefDir.10" value="0"/>
<param name="PrefDir.11" value="0"/>
<param name="PrefDir.12" value="0"/>
<param name="PrefDir.13" value="0"/>
<param name="PrefDir.14" value="0"/>
<param name="PrefDir.15" value="0"/>
<param name="PrefDir.16" value="a"/>
<param name="cfVia" value="8"/>
<param name="cfNonPref" value="5"/>
<param name="cfChangeDir" value="2"/>
<param name="cfOrthStep" value="2"/>
<param name="cfDiagStep" value="3"/>
<param name="cfExtdStep" value="0"/>
<param name="cfBonusStep" value="1"/>
<param name="cfMalusStep" value="1"/>
<param name="cfPadImpact" value="4"/>
<param name="cfSmdImpact" value="4"/>
<param name="cfBusImpact" value="0"/>
<param name="cfHugging" value="3"/>
<param name="cfAvoid" value="4"/>
<param name="cfPolygon" value="10"/>
<param name="cfBase.1" value="0"/>
<param name="cfBase.2" value="1"/>
<param name="cfBase.3" value="1"/>
<param name="cfBase.4" value="1"/>
<param name="cfBase.5" value="1"/>
<param name="cfBase.6" value="1"/>
<param name="cfBase.7" value="1"/>
<param name="cfBase.8" value="1"/>
<param name="cfBase.9" value="1"/>
<param name="cfBase.10" value="1"/>
<param name="cfBase.11" value="1"/>
<param name="cfBase.12" value="1"/>
<param name="cfBase.13" value="1"/>
<param name="cfBase.14" value="1"/>
<param name="cfBase.15" value="1"/>
<param name="cfBase.16" value="0"/>
<param name="mnVias" value="20"/>
<param name="mnSegments" value="9999"/>
<param name="mnExtdSteps" value="9999"/>
<param name="mnRipupLevel" value="10"/>
<param name="mnRipupSteps" value="100"/>
<param name="mnRipupTotal" value="100"/>
</pass>
<pass name="Follow-me" refer="Default" active="yes">
</pass>
<pass name="Busses" refer="Default" active="yes">
<param name="cfNonPref" value="4"/>
<param name="cfBusImpact" value="4"/>
<param name="cfHugging" value="0"/>
<param name="mnVias" value="0"/>
</pass>
<pass name="Route" refer="Default" active="yes">
</pass>
<pass name="Optimize1" refer="Default" active="yes">
<param name="cfVia" value="99"/>
<param name="cfExtdStep" value="10"/>
<param name="cfHugging" value="1"/>
<param name="mnExtdSteps" value="1"/>
<param name="mnRipupLevel" value="0"/>
</pass>
<pass name="Optimize2" refer="Optimize1" active="yes">
<param name="cfNonPref" value="0"/>
<param name="cfChangeDir" value="6"/>
<param name="cfExtdStep" value="0"/>
<param name="cfBonusStep" value="2"/>
<param name="cfMalusStep" value="2"/>
<param name="cfPadImpact" value="2"/>
<param name="cfSmdImpact" value="2"/>
<param name="cfHugging" value="0"/>
</pass>
<pass name="Optimize3" refer="Optimize2" active="yes">
<param name="cfChangeDir" value="8"/>
<param name="cfPadImpact" value="0"/>
<param name="cfSmdImpact" value="0"/>
</pass>
<pass name="Optimize4" refer="Optimize3" active="yes">
<param name="cfChangeDir" value="25"/>
</pass>
</autorouter>
<elements>
<element name="J1" library="SparkFun-Connectors" library_urn="urn:adsk.eagle:library:513" package="POWER_JACK_PTH" package3d_urn="urn:adsk.eagle:package:38231/1" value="POWER_JACK" x="1.397" y="34.798" rot="R270">
<attribute name="NAME" x="3.2258" y="34.8996" size="0.6096" layer="25" font="vector" ratio="20" rot="R270"/>
<attribute name="PROD_ID" value="CONN-08197" x="1.397" y="34.798" size="1.778" layer="27" rot="R270" display="off"/>
<attribute name="VALUE" x="2.2098" y="36.5506" size="0.6096" layer="27" font="vector" ratio="20" rot="R270"/>
</element>
<element name="U2" library="DFR0299" package="MODULE_DFR0299" value="DFR0299" x="13.97" y="13.97" rot="R270">
<attribute name="AVAILABILITY" value="In Stock" x="13.97" y="13.97" size="1.778" layer="27" rot="R270" display="off"/>
<attribute name="DESCRIPTION" value=" - MP3 Player Audio Arduino Platform Evaluation Expansion Board " x="13.97" y="13.97" size="1.778" layer="27" rot="R270" display="off"/>
<attribute name="MF" value="DFRobot" x="13.97" y="13.97" size="1.778" layer="27" rot="R270" display="off"/>
<attribute name="MP" value="DFR0299" x="13.97" y="13.97" size="1.778" layer="27" rot="R270" display="off"/>
<attribute name="NAME" x="24.697" y="5.574" size="1.016" layer="25" rot="R270"/>
<attribute name="PACKAGE" value="None" x="13.97" y="13.97" size="1.778" layer="27" rot="R270" display="off"/>
<attribute name="PRICE" value="None" x="13.97" y="13.97" size="1.778" layer="27" rot="R270" display="off"/>
<attribute name="PURCHASE-URL" value="https://pricing.snapeda.com/search/part/DFR0299/?ref=eda" x="13.97" y="13.97" size="1.778" layer="27" rot="R270" display="off"/>
<attribute name="VALUE" x="25.67" y="7.38" size="1.016" layer="27" rot="R90"/>
</element>
<element name="U3" library="DFR0299" package="MODULE_DFR0299" value="DFR0299" x="13.97" y="53.975" rot="R90">
<attribute name="AVAILABILITY" value="In Stock" x="13.97" y="53.975" size="1.778" layer="27" rot="R90" display="off"/>
<attribute name="DESCRIPTION" value=" - MP3 Player Audio Arduino Platform Evaluation Expansion Board " x="13.97" y="53.975" size="1.778" layer="27" rot="R90" display="off"/>
<attribute name="MF" value="DFRobot" x="13.97" y="53.975" size="1.778" layer="27" rot="R90" display="off"/>
<attribute name="MP" value="DFR0299" x="13.97" y="53.975" size="1.778" layer="27" rot="R90" display="off"/>
<attribute name="NAME" x="25.722" y="62.371" size="1.016" layer="25" rot="R90"/>
<attribute name="PACKAGE" value="None" x="13.97" y="53.975" size="1.778" layer="27" rot="R90" display="off"/>
<attribute name="PRICE" value="None" x="13.97" y="53.975" size="1.778" layer="27" rot="R90" display="off"/>
<attribute name="PURCHASE-URL" value="https://pricing.snapeda.com/search/part/DFR0299/?ref=eda" x="13.97" y="53.975" size="1.778" layer="27" rot="R90" display="off"/>
<attribute name="VALUE" x="25.67" y="55.005" size="1.016" layer="27" rot="R90"/>
</element>
<element name="C1" library="SparkFun-Capacitors" library_urn="urn:adsk.eagle:library:510" package="CAP-PTH-SMALL-KIT" package3d_urn="urn:adsk.eagle:package:37428/1" value="0.33uF" x="22.86" y="40.64">
<attribute name="PROD_ID" value="CAP-08370" x="22.86" y="40.64" size="1.778" layer="27" display="off"/>
</element>
<element name="C2" library="SparkFun-Capacitors" library_urn="urn:adsk.eagle:library:510" package="CAP-PTH-SMALL-KIT" package3d_urn="urn:adsk.eagle:package:37428/1" value="0.1uF" x="27.432" y="33.147" rot="R90">
<attribute name="PROD_ID" value="CAP-08370" x="27.432" y="33.147" size="1.778" layer="27" rot="R90" display="off"/>
</element>
<element name="J2" library="SparkFun-Connectors" library_urn="urn:adsk.eagle:library:513" package="1X10" package3d_urn="urn:adsk.eagle:package:38157/1" value="" x="45.085" y="45.085" rot="R270">
<attribute name="NAME" x="42.672" y="46.355" size="0.6096" layer="25" font="vector" ratio="20" rot="R270"/>
<attribute name="PROD_ID" value="CONN-11563" x="45.085" y="45.085" size="1.778" layer="27" rot="R270" display="off"/>
<attribute name="VALUE" x="43.053" y="46.355" size="0.6096" layer="27" font="vector" ratio="20" rot="R270"/>
</element>
<element name="R2" library="SparkFun-Resistors" library_urn="urn:adsk.eagle:library:532" package="AXIAL-0.1-KIT" package3d_urn="urn:adsk.eagle:package:39653/1" value="1k" x="33.401" y="23.876" rot="R90">
<attribute name="NAME" x="32.258" y="23.876" size="0.6096" layer="25" font="vector" ratio="20" rot="R90" align="bottom-center"/>
<attribute name="PROD_ID" value="RES-12182" x="33.401" y="23.876" size="1.778" layer="27" rot="R90" display="off"/>
<attribute name="VALUE" x="34.544" y="23.876" size="0.6096" layer="27" font="vector" ratio="20" rot="R90" align="top-center"/>
</element>
<element name="R3" library="SparkFun-Resistors" library_urn="urn:adsk.eagle:library:532" package="AXIAL-0.1-KIT" package3d_urn="urn:adsk.eagle:package:39653/1" value="1k" x="34.671" y="41.91" rot="R270">
<attribute name="NAME" x="35.814" y="41.91" size="0.6096" layer="25" font="vector" ratio="20" rot="R270" align="bottom-center"/>
<attribute name="PROD_ID" value="RES-12182" x="34.671" y="41.91" size="1.778" layer="27" rot="R270" display="off"/>
<attribute name="VALUE" x="33.528" y="41.91" size="0.6096" layer="27" font="vector" ratio="20" rot="R270" align="top-center"/>
</element>
<element name="J3" library="SparkFun-Connectors" library_urn="urn:adsk.eagle:library:513" package="1X03" package3d_urn="urn:adsk.eagle:package:38063/1" value="" x="22.86" y="34.29" rot="R270">
<attribute name="NAME" x="25.273" y="28.575" size="0.6096" layer="25" font="vector" ratio="20" rot="R90"/>
<attribute name="VALUE" x="20.828" y="35.56" size="0.6096" layer="27" font="vector" ratio="20" rot="R270"/>
</element>
<element name="D1" library="SparkFun-LED" library_urn="urn:adsk.eagle:library:529" package="LED_3MM" package3d_urn="urn:adsk.eagle:package:39361/1" value="" x="34.671" y="33.02" rot="R90">
<attribute name="PROD_ID" value="DIO-08794" x="34.671" y="33.02" size="1.778" layer="27" rot="R90" display="off"/>
<attribute name="VALUE" x="36.957" y="33.02" size="0.6096" layer="27" font="vector" ratio="20" rot="R90" align="top-center"/>
</element>
<element name="R1" library="SparkFun-Resistors" library_urn="urn:adsk.eagle:library:532" package="AXIAL-0.1-KIT" package3d_urn="urn:adsk.eagle:package:39653/1" value="300" x="31.115" y="33.02" rot="R90">
<attribute name="NAME" x="29.972" y="32.004" size="0.6096" layer="25" font="vector" ratio="20" rot="R90" align="bottom-center"/>
<attribute name="PROD_ID" value="RES-12182" x="31.115" y="33.02" size="1.778" layer="27" rot="R90" display="off"/>
<attribute name="VALUE" x="29.972" y="34.036" size="0.6096" layer="27" font="vector" ratio="20" rot="R270" align="top-center"/>
</element>
<element name="J4" library="SparkFun-Connectors" library_urn="urn:adsk.eagle:library:513" package="1X04" package3d_urn="urn:adsk.eagle:package:38085/1" value="" x="45.085" y="18.415" rot="R180">
<attribute name="NAME" x="45.847" y="20.32" size="0.6096" layer="25" font="vector" ratio="20" rot="R270"/>
<attribute name="PROD_ID" value="CONN-09696" x="45.085" y="18.415" size="1.778" layer="27" rot="R180" display="off"/>
<attribute name="VALUE" x="46.355" y="20.447" size="0.6096" layer="27" font="vector" ratio="20" rot="R180"/>
</element>
<element name="J5" library="SparkFun-Connectors" library_urn="urn:adsk.eagle:library:513" package="1X04" package3d_urn="urn:adsk.eagle:package:38085/1" value="" x="45.085" y="15.875" rot="R180">
<attribute name="NAME" x="46.101" y="14.859" size="0.6096" layer="25" font="vector" ratio="20" rot="R270"/>
<attribute name="PROD_ID" value="CONN-09696" x="45.085" y="15.875" size="1.778" layer="27" rot="R180" display="off"/>
<attribute name="VALUE" x="46.355" y="17.907" size="0.6096" layer="27" font="vector" ratio="20" rot="R180"/>
</element>
<element name="J6" library="SJ1-3523N" package="CUI_SJ1-3523N" value="SJ1-3523N" x="41.91" y="7.62" rot="R180">
<attribute name="AVAILABILITY" value="In Stock" x="41.91" y="7.62" size="1.778" layer="27" rot="R180" display="off"/>
<attribute name="CUI_PURCHASE_URL" value="https://www.cuidevices.com/product/interconnect/connectors/audio-connectors/jacks/sj1-352xn-series?utm_source=snapeda.com&amp;utm_medium=referral&amp;utm_campaign=snapedaBOM" x="41.91" y="7.62" size="1.778" layer="27" rot="R180" display="off"/>
<attribute name="DESCRIPTION" value=" 3.5 mm, Stereo, Right Angle, Through Hole, 3 Conductors, 0~2 Internal Switches, Audio Jack Connector " x="41.91" y="7.62" size="1.778" layer="27" rot="R180" display="off"/>
<attribute name="MF" value="CUI Devices" x="41.91" y="7.62" size="1.778" layer="27" rot="R180" display="off"/>
<attribute name="MP" value="SJ1-3523N" x="41.91" y="7.62" size="1.778" layer="27" rot="R180" display="off"/>
<attribute name="NAME" x="32.44893125" y="8.327409375" size="1.270509375" layer="25" rot="R270"/>
<attribute name="PACKAGE" value="None" x="41.91" y="7.62" size="1.778" layer="27" rot="R180" display="off"/>
<attribute name="PRICE" value="None" x="41.91" y="7.62" size="1.778" layer="27" rot="R180" display="off"/>
<attribute name="PURCHASE-URL" value="https://pricing.snapeda.com/search/part/SJ1-3523N/?ref=eda" x="41.91" y="7.62" size="1.778" layer="27" rot="R180" display="off"/>
</element>
</elements>
<signals>
<signal name="GND">
<contactref element="J1" pad="GNDBREAK"/>
<contactref element="J1" pad="GND"/>
<contactref element="C1" pad="2"/>
<contactref element="C2" pad="2"/>
<contactref element="U2" pad="10"/>
<contactref element="U2" pad="7"/>
<contactref element="J2" pad="5"/>
<contactref element="J2" pad="4"/>
<contactref element="J3" pad="2"/>
<contactref element="U3" pad="10"/>
<contactref element="U3" pad="7"/>
<polygon width="0.3048" layer="16" isolate="0.254" thermals="no">
<vertex x="-1.27" y="74.93"/>
<vertex x="-6.35" y="69.85"/>
<vertex x="-6.35" y="-1.27"/>
<vertex x="-1.27" y="-6.35"/>
<vertex x="49.530003125" y="-6.35"/>
<vertex x="54.61" y="-1.270003125"/>
<vertex x="54.61" y="69.85"/>
<vertex x="49.53" y="74.93"/>
</polygon>
<contactref element="D1" pad="K"/>
<contactref element="J6" pad="1"/>
<contactref element="J5" pad="4"/>
<contactref element="J5" pad="3"/>
<contactref element="J5" pad="2"/>
<contactref element="J5" pad="1"/>
</signal>
<signal name="VIN">
<contactref element="J1" pad="PWR"/>
<contactref element="C1" pad="1"/>
<contactref element="J3" pad="1"/>
<polygon width="0.3048" layer="1" thermals="no">
<vertex x="12.7" y="40.64"/>
<vertex x="12.7" y="33.909"/>
<vertex x="14.097" y="32.512"/>
<vertex x="19.812" y="32.512"/>
<vertex x="20.574" y="33.274"/>
<vertex x="23.368" y="33.274"/>
<vertex x="23.876" y="33.782"/>
<vertex x="23.876" y="38.354"/>
<vertex x="22.479" y="39.751"/>
<vertex x="22.479" y="41.021"/>
<vertex x="21.59" y="41.91"/>
<vertex x="13.97" y="41.91"/>
</polygon>
</signal>
<signal name="5V">
<contactref element="C2" pad="1"/>
<contactref element="J2" pad="7"/>
<contactref element="J2" pad="6"/>
<contactref element="U3" pad="1"/>
<contactref element="U2" pad="1"/>
<contactref element="J3" pad="3"/>
<polygon width="0.254" layer="1" thermals="no">
<vertex x="20.066" y="30.226"/>
<vertex x="23.876" y="30.226"/>
<vertex x="26.416" y="32.766"/>
<vertex x="31.242" y="32.766"/>
<vertex x="33.782" y="30.226"/>
<vertex x="35.179" y="30.226"/>
<vertex x="38.3572" y="33.4042"/>
<vertex x="45.427346875" y="33.439653125"/>
<vertex x="46.228" y="32.639"/>
<vertex x="46.228" y="29.718"/>
<vertex x="45.339" y="28.829"/>
<vertex x="41.529" y="28.829"/>
<vertex x="39.37" y="26.67"/>
<vertex x="31.115" y="26.67"/>
<vertex x="26.797" y="22.352"/>
<vertex x="22.225" y="22.352"/>
<vertex x="21.844" y="22.733"/>
<vertex x="21.844" y="23.876"/>
<vertex x="19.05" y="26.67"/>
<vertex x="19.05" y="29.21"/>
</polygon>
<wire x1="22.86" y1="29.21" x2="19.685" y2="26.035" width="0.508" layer="1"/>
<wire x1="19.685" y1="26.035" x2="9.525" y2="26.035" width="0.508" layer="1"/>
<wire x1="9.525" y1="26.035" x2="5.08" y2="30.48" width="0.508" layer="1"/>
<wire x1="5.08" y1="44.958" x2="5.08" y2="30.48" width="0.508" layer="1"/>
<contactref element="R1" pad="P$1"/>
<contactref element="J4" pad="4"/>
<contactref element="J4" pad="3"/>
<contactref element="J4" pad="2"/>
<contactref element="J4" pad="1"/>
<polygon width="0.508" layer="1" thermals="no">
<vertex x="44.323" y="33.147"/>
<vertex x="48.133" y="33.147"/>
<vertex x="49.403" y="31.877"/>
<vertex x="49.403" y="18.796"/>
<vertex x="48.133" y="17.526"/>
<vertex x="37.084" y="17.526"/>
<vertex x="36.576" y="18.034"/>
<vertex x="36.576" y="18.669"/>
<vertex x="38.354" y="20.447"/>
<vertex x="45.466" y="20.447"/>
<vertex x="46.609" y="21.59"/>
<vertex x="46.609" y="27.94"/>
<vertex x="45.593" y="28.956"/>
<vertex x="44.831" y="28.956"/>
<vertex x="43.942" y="29.845"/>
<vertex x="43.942" y="32.639"/>
<vertex x="44.323" y="33.02"/>
</polygon>
</signal>
<signal name="RX_SPK2">
<contactref element="J2" pad="1"/>
<contactref element="U3" pad="2"/>
<wire x1="7.62" y1="44.958" x2="9.652" y2="46.99" width="0.508" layer="1"/>
<wire x1="43.18" y1="46.99" x2="9.652" y2="46.99" width="0.508" layer="1"/>
<wire x1="45.085" y1="45.085" x2="43.18" y2="46.99" width="0.508" layer="1"/>
</signal>
<signal name="RX_SPK1">
<contactref element="J2" pad="10"/>
<contactref element="U2" pad="2"/>
<wire x1="20.32" y1="22.987" x2="24.257" y2="19.05" width="0.508" layer="16"/>
<wire x1="24.257" y1="19.05" x2="26.67" y2="19.05" width="0.508" layer="16"/>
<via x="26.67" y="19.05" extent="1-16" drill="0.35"/>
<wire x1="26.67" y1="19.05" x2="34.544" y2="19.05" width="0.508" layer="1"/>
<wire x1="45.085" y1="22.225" x2="37.719" y2="22.225" width="0.508" layer="1"/>
<wire x1="37.719" y1="22.225" x2="34.544" y2="19.05" width="0.508" layer="1"/>
</signal>
<signal name="N$1">
<contactref element="U3" pad="6"/>
<contactref element="R3" pad="P$1"/>
<wire x1="17.78" y1="44.958" x2="19.558" y2="43.18" width="0.508" layer="1"/>
<wire x1="34.671" y1="43.18" x2="19.558" y2="43.18" width="0.508" layer="1"/>
</signal>
<signal name="N$2">
<contactref element="U2" pad="6"/>
<contactref element="R2" pad="P$1"/>
<wire x1="10.16" y1="22.987" x2="11.811" y2="21.336" width="0.508" layer="1"/>
<wire x1="33.401" y1="22.606" x2="32.131" y2="21.336" width="0.508" layer="1"/>
<wire x1="11.811" y1="21.336" x2="32.131" y2="21.336" width="0.508" layer="1"/>
</signal>
<signal name="SPK1-">
<contactref element="U2" pad="8"/>
<contactref element="J2" pad="9"/>
<wire x1="5.08" y1="22.987" x2="7.874" y2="20.193" width="0.508" layer="1"/>
<wire x1="33.782" y1="20.193" x2="7.874" y2="20.193" width="0.508" layer="1"/>
<wire x1="37.211" y1="23.622" x2="33.782" y2="20.193" width="0.508" layer="1"/>
<wire x1="45.085" y1="24.765" x2="43.942" y2="23.622" width="0.508" layer="1"/>
<wire x1="43.942" y1="23.622" x2="37.211" y2="23.622" width="0.508" layer="1"/>
</signal>
<signal name="SPK1+">
<contactref element="R2" pad="P$2"/>
<contactref element="J2" pad="8"/>
<wire x1="45.085" y1="27.305" x2="42.926" y2="25.146" width="0.508" layer="1"/>
<wire x1="42.926" y1="25.146" x2="33.401" y2="25.146" width="0.508" layer="1"/>
</signal>
<signal name="SPK2+">
<contactref element="R3" pad="P$2"/>
<contactref element="J2" pad="3"/>
<wire x1="34.671" y1="40.64" x2="35.306" y2="40.005" width="0.508" layer="1"/>
<wire x1="45.085" y1="40.005" x2="35.306" y2="40.005" width="0.508" layer="1"/>
</signal>
<signal name="SPK2-">
<contactref element="U3" pad="8"/>
<contactref element="J2" pad="2"/>
<wire x1="42.672" y1="44.958" x2="22.86" y2="44.958" width="0.508" layer="1"/>
<wire x1="45.085" y1="42.545" x2="42.672" y2="44.958" width="0.508" layer="1"/>
</signal>
<signal name="N$35">
<via x="45.096" y="47.371" extent="1-16" drill="0.35"/>
</signal>
<signal name="N$36">
<via x="44.346" y="48.171" extent="1-16" drill="0.35"/>
</signal>
<signal name="N$37">
<via x="45.846" y="48.171" extent="1-16" drill="0.35"/>
</signal>
<signal name="N$38">
<via x="46.596" y="48.971" extent="1-16" drill="0.35"/>
</signal>
<signal name="N$39">
<via x="43.596" y="48.971" extent="1-16" drill="0.35"/>
</signal>
<signal name="N$40">
<via x="45.096" y="48.771" extent="1-16" drill="0.35"/>
</signal>
<signal name="N$41">
<via x="45.085" y="49.784" extent="1-16" drill="0.35"/>
</signal>
<signal name="N$42">
<via x="45.085" y="50.8" extent="1-16" drill="0.35"/>
</signal>
<signal name="N$43">
<via x="46.736" y="54.24" extent="1-16" drill="0.35"/>
</signal>
<signal name="N$44">
<via x="45.936" y="53.49" extent="1-16" drill="0.35"/>
</signal>
<signal name="N$45">
<via x="45.936" y="54.99" extent="1-16" drill="0.35"/>
</signal>
<signal name="N$46">
<via x="45.136" y="55.74" extent="1-16" drill="0.35"/>
</signal>
<signal name="N$47">
<via x="45.136" y="52.74" extent="1-16" drill="0.35"/>
</signal>
<signal name="N$48">
<via x="45.336" y="54.24" extent="1-16" drill="0.35"/>
</signal>
<signal name="N$49">
<via x="44.323" y="54.229" extent="1-16" drill="0.35"/>
</signal>
<signal name="N$50">
<via x="43.307" y="54.229" extent="1-16" drill="0.35"/>
</signal>
<signal name="N$51">
<via x="43.307" y="59.298" extent="1-16" drill="0.35"/>
</signal>
<signal name="N$52">
<via x="44.107" y="60.048" extent="1-16" drill="0.35"/>
</signal>
<signal name="N$53">
<via x="44.107" y="58.548" extent="1-16" drill="0.35"/>
</signal>
<signal name="N$54">
<via x="44.907" y="57.798" extent="1-16" drill="0.35"/>
</signal>
<signal name="N$55">
<via x="44.907" y="60.798" extent="1-16" drill="0.35"/>
</signal>
<signal name="N$56">
<via x="44.707" y="59.298" extent="1-16" drill="0.35"/>
</signal>
<signal name="N$57">
<via x="45.72" y="59.309" extent="1-16" drill="0.35"/>
</signal>
<signal name="N$58">
<via x="46.736" y="59.309" extent="1-16" drill="0.35"/>
</signal>
<signal name="N$59">
<via x="45.074" y="66.294" extent="1-16" drill="0.35"/>
</signal>
<signal name="N$60">
<via x="45.824" y="65.494" extent="1-16" drill="0.35"/>
</signal>
<signal name="N$61">
<via x="44.324" y="65.494" extent="1-16" drill="0.35"/>
</signal>
<signal name="N$62">
<via x="43.574" y="64.694" extent="1-16" drill="0.35"/>
</signal>
<signal name="N$63">
<via x="46.574" y="64.694" extent="1-16" drill="0.35"/>
</signal>
<signal name="N$64">
<via x="45.074" y="64.894" extent="1-16" drill="0.35"/>
</signal>
<signal name="N$65">
<via x="45.085" y="63.881" extent="1-16" drill="0.35"/>
</signal>
<signal name="N$66">
<via x="45.085" y="62.865" extent="1-16" drill="0.35"/>
</signal>
<signal name="N$67">
<contactref element="R1" pad="P$2"/>
<contactref element="D1" pad="A"/>
<wire x1="31.115" y1="34.29" x2="32.131" y2="34.29" width="0.508" layer="1"/>
<wire x1="32.131" y1="34.29" x2="34.671" y2="31.75" width="0.508" layer="1"/>
</signal>
<signal name="N$4">
<contactref element="J6" pad="3"/>
<contactref element="U2" pad="4"/>
<wire x1="21.082" y1="16.51" x2="15.24" y2="22.352" width="0.508" layer="16"/>
<wire x1="15.24" y1="22.987" x2="15.24" y2="22.352" width="0.508" layer="16"/>
<via x="21.082" y="16.51" extent="1-16" drill="0.35"/>
<wire x1="21.082" y1="16.51" x2="34.972" y2="2.62" width="0.508" layer="1"/>
<wire x1="34.972" y1="2.62" x2="36.91" y2="2.62" width="0.508" layer="1"/>
</signal>
<signal name="N$5">
<contactref element="J6" pad="2"/>
<contactref element="U3" pad="4"/>
<wire x1="12.7" y1="44.958" x2="8.382" y2="40.64" width="0.508" layer="1"/>
<wire x1="8.382" y1="40.64" x2="6.985" y2="40.64" width="0.508" layer="1"/>
<via x="6.985" y="40.64" extent="1-16" drill="0.35"/>
<wire x1="6.985" y1="40.64" x2="3.175" y2="40.64" width="0.508" layer="16"/>
<via x="3.175" y="40.64" extent="1-16" drill="0.35"/>
<wire x1="3.175" y1="40.64" x2="1.905" y2="39.37" width="0.508" layer="1"/>
<wire x1="1.905" y1="39.37" x2="1.905" y2="23.495" width="0.508" layer="1"/>
<wire x1="1.905" y1="23.495" x2="7.62" y2="17.78" width="0.508" layer="1"/>
<wire x1="7.62" y1="17.78" x2="31.75" y2="17.78" width="0.508" layer="1"/>
<wire x1="31.75" y1="17.78" x2="36.91" y2="12.62" width="0.6096" layer="1"/>
</signal>
</signals>
<mfgpreviewcolors>
<mfgpreviewcolor name="soldermaskcolor" color="0xC8008000"/>
<mfgpreviewcolor name="silkscreencolor" color="0xFFFEFEFE"/>
<mfgpreviewcolor name="backgroundcolor" color="0xFF282828"/>
<mfgpreviewcolor name="coppercolor" color="0xFFFFBF00"/>
<mfgpreviewcolor name="substratecolor" color="0xFF786E46"/>
</mfgpreviewcolors>
<errors>
<approved hash="6,16,7cee5f225e207dec"/>
<approved hash="6,16,1300f172f0b212c0"/>
<approved hash="6,16,f6127ad6642ce8e8"/>
<approved hash="6,16,15162e2cc1dffce4"/>
<approved hash="6,16,5e835e9dfdfefde0"/>
<approved hash="6,16,72503e1c21536d1f"/>
<approved hash="6,16,93960164076d959f"/>
<approved hash="6,16,4016dc5adc184054"/>
<approved hash="6,16,f4232ad12ab4f446"/>
<approved hash="6,16,2a6d4b61791bfb1b"/>
<approved hash="6,16,13f09f3c9e3d12f1"/>
<approved hash="6,16,221306d718213ce5"/>
<approved hash="6,16,1a127ed6602f04eb"/>
</errors>
</board>
</drawing>
<compatibility>
<note version="6.3" minversion="6.2.2" severity="warning">
Since Version 6.2.2 text objects can contain more than one line,
which will not be processed correctly with this version.
</note>
<note version="8.2" severity="warning">
Since Version 8.2, EAGLE supports online libraries. The ids
of those online libraries will not be understood (or retained)
with this version.
</note>
<note version="8.3" severity="warning">
Since Version 8.3, EAGLE supports URNs for individual library
assets (packages, symbols, and devices). The URNs of those assets
will not be understood (or retained) with this version.
</note>
<note version="8.3" severity="warning">
Since Version 8.3, EAGLE supports the association of 3D packages
with devices in libraries, schematics, and board files. Those 3D
packages will not be understood (or retained) with this version.
</note>
</compatibility>
</eagle>
